{
    "prefix": "!",
    "discord_owner_id": "Owner ID",
    "token": "Discord App Token",
    "tenorAPI": "Tenor API Token",
    "youtubeAPI": "YouTube API Token",
    "geniusLyricsAPI": "Genius Lyrics API Token"
  }